2018-07-29 11:45:02,400 [INFO] (3381 MainThread) [clearStaleLogPublishingRecords.py-38] [root clearStaleLogPublishingRecords main] Clearing stale log publish records publish log task with batch id d4420bdc-9324-11e8-9313-0a22a46a6da6
2018-07-29 11:45:02,400 [INFO] (3381 MainThread) [file_tools.py-34] [root file_tools __init__] Created directory /tmp/.log-publish-records for recording published log file entries
2018-07-29 11:45:02,401 [INFO] (3381 MainThread) [clearStaleLogPublishingRecords.py-48] [root clearStaleLogPublishingRecords main] Successfully cleared stale log publishing records
